Homework/simulation/qsim/Homework.msim.vcd
$comment
	File created using the following command:
		vcd file Homework.msim.vcd -direction
$end
$date
	Tue Mar 28 10:06:32 2023
$end
$version
	ModelSim Version 10.1d
$end
$timescale
	1ps
$end
$scope module test_sub_vlg_vec_tst $end
$var reg 1 ! pin_name1 $end
$var wire 1 " pin_name2 $end
$var wire 1 # pin_name3 $end
$var wire 1 $ pin_name4 $end
$var wire 1 % sampler $end
$scope module i1 $end
$var wire 1 & gnd $end
$var wire 1 ' vcc $end
$var wire 1 ( unknown $end
$var tri1 1 ) devclrn $end
$var tri1 1 * devpor $end
$var tri1 1 + devoe $end
$var wire 1 , pin_name2~output_o $end
$var wire 1 - pin_name3~output_o $end
$var wire 1 . pin_name4~output_o $end
$var wire 1 / pin_name1~input_o $end
$var wire 1 0 pin_name1~inputclkctrl_outclk $end
$var wire 1 1 inst|count[0]~2_combout $end
$var wire 1 2 inst|count[2]~1_combout $end
$var wire 1 3 inst|count~0_combout $end
$var wire 1 4 inst|count [2] $end
$var wire 1 5 inst|count [1] $end
$var wire 1 6 inst|count [0] $end
$upscope $end
$upscope $end
$enddefinitions $end
#0
$dumpvars
0!
1"
0#
1$
x%
0&
1'
x(
1)
1*
1+
1,
0-
1.
0/
00
11
02
03
06
05
04
$end
#5000
1!
1/
10
0%
#10000
0!
0/
00
1%
16
13
12
01
0,
0"
#15000
1!
1/
10
0%
#20000
0!
0/
00
1%
06
14
15
11
1,
0.
1-
1"
0$
1#
#25000
1!
1/
10
0%
#30000
0!
0/
00
1%
16
03
01
0,
0"
#35000
1!
1/
10
0%
#40000
0!
0/
00
1%
06
05
11
1,
0-
1"
0#
#45000
1!
1/
10
0%
#50000
0!
0/
00
1%
16
02
01
0,
0"
#55000
1!
1/
10
0%
#60000
0!
0/
00
1%
06
04
11
1,
1.
1"
1$
#65000
1!
1/
10
0%
#70000
0!
0/
00
1%
16
13
12
01
0,
0"
#75000
1!
1/
10
0%
#80000
0!
0/
00
1%
06
14
15
11
1,
0.
1-
1"
0$
1#
#85000
1!
1/
10
0%
#90000
0!
0/
00
1%
16
03
01
0,
0"
#95000
1!
1/
10
0%
#100000
0!
0/
00
1%
06
05
11
1,
0-
1"
0#
#105000
1!
1/
10
0%
#110000
0!
0/
00
1%
16
02
01
0,
0"
#115000
1!
1/
10
0%
#120000
0!
0/
00
1%
06
04
11
1,
1.
1"
1$
#125000
1!
1/
10
0%
#130000
0!
0/
00
1%
16
13
12
01
0,
0"
#135000
1!
1/
10
0%
#140000
0!
0/
00
1%
06
14
15
11
1,
0.
1-
1"
0$
1#
#145000
1!
1/
10
0%
#150000
0!
0/
00
1%
16
03
01
0,
0"
#155000
1!
1/
10
0%
#160000
0!
0/
00
1%
06
05
11
1,
0-
1"
0#
#165000
1!
1/
10
0%
#170000
0!
0/
00
1%
16
02
01
0,
0"
#175000
1!
1/
10
0%
#180000
0!
0/
00
1%
06
04
11
1,
1.
1"
1$
#185000
1!
1/
10
0%
#190000
0!
0/
00
1%
16
13
12
01
0,
0"
#195000
1!
1/
10
0%
#200000
0!
0/
00
1%
06
14
15
11
1,
0.
1-
1"
0$
1#
#205000
1!
1/
10
0%
#210000
0!
0/
00
1%
16
03
01
0,
0"
#215000
1!
1/
10
0%
#220000
0!
0/
00
1%
06
05
11
1,
0-
1"
0#
#225000
1!
1/
10
0%
#230000
0!
0/
00
1%
16
02
01
0,
0"
#235000
1!
1/
10
0%
#240000
0!
0/
00
1%
06
04
11
1,
1.
1"
1$
#245000
1!
1/
10
0%
#250000
0!
0/
00
1%
16
13
12
01
0,
0"
#255000
1!
1/
10
0%
#260000
0!
0/
00
1%
06
14
15
11
1,
0.
1-
1"
0$
1#
#265000
1!
1/
10
0%
#270000
0!
0/
00
1%
16
03
01
0,
0"
#275000
1!
1/
10
0%
#280000
0!
0/
00
1%
06
05
11
1,
0-
1"
0#
#285000
1!
1/
10
0%
#290000
0!
0/
00
1%
16
02
01
0,
0"
#295000
1!
1/
10
0%
#300000
0!
0/
00
1%
06
04
11
1,
1.
1"
1$
#305000
1!
1/
10
0%
#310000
0!
0/
00
1%
16
13
12
01
0,
0"
#315000
1!
1/
10
0%
#320000
0!
0/
00
1%
06
14
15
11
1,
0.
1-
1"
0$
1#
#325000
1!
1/
10
0%
#330000
0!
0/
00
1%
16
03
01
0,
0"
#335000
1!
1/
10
0%
#340000
0!
0/
00
1%
06
05
11
1,
0-
1"
0#
#345000
1!
1/
10
0%
#350000
0!
0/
00
1%
16
02
01
0,
0"
#355000
1!
1/
10
0%
#360000
0!
0/
00
1%
06
04
11
1,
1.
1"
1$
#365000
1!
1/
10
0%
#370000
0!
0/
00
1%
16
13
12
01
0,
0"
#375000
1!
1/
10
0%
#380000
0!
0/
00
1%
06
14
15
11
1,
0.
1-
1"
0$
1#
#385000
1!
1/
10
0%
#390000
0!
0/
00
1%
16
03
01
0,
0"
#395000
1!
1/
10
0%
#400000
0!
0/
00
1%
06
05
11
1,
0-
1"
0#
#405000
1!
1/
10
0%
#410000
0!
0/
00
1%
16
02
01
0,
0"
#415000
1!
1/
10
0%
#420000
0!
0/
00
1%
06
04
11
1,
1.
1"
1$
#425000
1!
1/
10
0%
#430000
0!
0/
00
1%
16
13
12
01
0,
0"
#435000
1!
1/
10
0%
#440000
0!
0/
00
1%
06
14
15
11
1,
0.
1-
1"
0$
1#
#445000
1!
1/
10
0%
#450000
0!
0/
00
1%
16
03
01
0,
0"
#455000
1!
1/
10
0%
#460000
0!
0/
00
1%
06
05
11
1,
0-
1"
0#
#465000
1!
1/
10
0%
#470000
0!
0/
00
1%
16
02
01
0,
0"
#475000
1!
1/
10
0%
#480000
0!
0/
00
1%
06
04
11
1,
1.
1"
1$
#485000
1!
1/
10
0%
#490000
0!
0/
00
1%
16
13
12
01
0,
0"
#495000
1!
1/
10
0%
#500000
0!
0/
00
1%
06
14
15
11
1,
0.
1-
1"
0$
1#
#505000
1!
1/
10
0%
#510000
0!
0/
00
1%
16
03
01
0,
0"
#515000
1!
1/
10
0%
#520000
0!
0/
00
1%
06
05
11
1,
0-
1"
0#
#525000
1!
1/
10
0%
#530000
0!
0/
00
1%
16
02
01
0,
0"
#535000
1!
1/
10
0%
#540000
0!
0/
00
1%
06
04
11
1,
1.
1"
1$
#545000
1!
1/
10
0%
#550000
0!
0/
00
1%
16
13
12
01
0,
0"
#555000
1!
1/
10
0%
#560000
0!
0/
00
1%
06
14
15
11
1,
0.
1-
1"
0$
1#
#565000
1!
1/
10
0%
#570000
0!
0/
00
1%
16
03
01
0,
0"
#575000
1!
1/
10
0%
#580000
0!
0/
00
1%
06
05
11
1,
0-
1"
0#
#585000
1!
1/
10
0%
#590000
0!
0/
00
1%
16
02
01
0,
0"
#595000
1!
1/
10
0%
#600000
0!
0/
00
1%
06
04
11
1,
1.
1"
1$
#605000
1!
1/
10
0%
#610000
0!
0/
00
1%
16
13
12
01
0,
0"
#615000
1!
1/
10
0%
#620000
0!
0/
00
1%
06
14
15
11
1,
0.
1-
1"
0$
1#
#625000
1!
1/
10
0%
#630000
0!
0/
00
1%
16
03
01
0,
0"
#635000
1!
1/
10
0%
#640000
0!
0/
00
1%
06
05
11
1,
0-
1"
0#
#645000
1!
1/
10
0%
#650000
0!
0/
00
1%
16
02
01
0,
0"
#655000
1!
1/
10
0%
#660000
0!
0/
00
1%
06
04
11
1,
1.
1"
1$
#665000
1!
1/
10
0%
#670000
0!
0/
00
1%
16
13
12
01
0,
0"
#675000
1!
1/
10
0%
#680000
0!
0/
00
1%
06
14
15
11
1,
0.
1-
1"
0$
1#
#685000
1!
1/
10
0%
#690000
0!
0/
00
1%
16
03
01
0,
0"
#695000
1!
1/
10
0%
#700000
0!
0/
00
1%
06
05
11
1,
0-
1"
0#
#705000
1!
1/
10
0%
#710000
0!
0/
00
1%
16
02
01
0,
0"
#715000
1!
1/
10
0%
#720000
0!
0/
00
1%
06
04
11
1,
1.
1"
1$
#725000
1!
1/
10
0%
#730000
0!
0/
00
1%
16
13
12
01
0,
0"
#735000
1!
1/
10
0%
#740000
0!
0/
00
1%
06
14
15
11
1,
0.
1-
1"
0$
1#
#745000
1!
1/
10
0%
#750000
0!
0/
00
1%
16
03
01
0,
0"
#755000
1!
1/
10
0%
#760000
0!
0/
00
1%
06
05
11
1,
0-
1"
0#
#765000
1!
1/
10
0%
#770000
0!
0/
00
1%
16
02
01
0,
0"
#775000
1!
1/
10
0%
#780000
0!
0/
00
1%
06
04
11
1,
1.
1"
1$
#785000
1!
1/
10
0%
#790000
0!
0/
00
1%
16
13
12
01
0,
0"
#795000
1!
1/
10
0%
#800000
0!
0/
00
1%
06
14
15
11
1,
0.
1-
1"
0$
1#
#805000
1!
1/
10
0%
#810000
0!
0/
00
1%
16
03
01
0,
0"
#815000
1!
1/
10
0%
#820000
0!
0/
00
1%
06
05
11
1,
0-
1"
0#
#825000
1!
1/
10
0%
#830000
0!
0/
00
1%
16
02
01
0,
0"
#835000
1!
1/
10
0%
#840000
0!
0/
00
1%
06
04
11
1,
1.
1"
1$
#845000
1!
1/
10
0%
#850000
0!
0/
00
1%
16
13
12
01
0,
0"
#855000
1!
1/
10
0%
#860000
0!
0/
00
1%
06
14
15
11
1,
0.
1-
1"
0$
1#
#865000
1!
1/
10
0%
#870000
0!
0/
00
1%
16
03
01
0,
0"
#875000
1!
1/
10
0%
#880000
0!
0/
00
1%
06
05
11
1,
0-
1"
0#
#885000
1!
1/
10
0%
#890000
0!
0/
00
1%
16
02
01
0,
0"
#895000
1!
1/
10
0%
#900000
0!
0/
00
1%
06
04
11
1,
1.
1"
1$
#905000
1!
1/
10
0%
#910000
0!
0/
00
1%
16
13
12
01
0,
0"
#915000
1!
1/
10
0%
#920000
0!
0/
00
1%
06
14
15
11
1,
0.
1-
1"
0$
1#
#925000
1!
1/
10
0%
#930000
0!
0/
00
1%
16
03
01
0,
0"
#935000
1!
1/
10
0%
#940000
0!
0/
00
1%
06
05
11
1,
0-
1"
0#
#945000
1!
1/
10
0%
#950000
0!
0/
00
1%
16
02
01
0,
0"
#955000
1!
1/
10
0%
#960000
0!
0/
00
1%
06
04
11
1,
1.
1"
1$
#965000
1!
1/
10
0%
#970000
0!
0/
00
1%
16
13
12
01
0,
0"
#975000
1!
1/
10
0%
#980000
0!
0/
00
1%
06
14
15
11
1,
0.
1-
1"
0$
1#
#985000
1!
1/
10
0%
#990000
0!
0/
00
1%
16
03
01
0,
0"
#995000
1!
1/
10
0%
